Title — get_datasets • readaihw
…
    Title

    Usage

get_datasets()

    Value

    data

    Examples

get_datasets()
#> # A tibble: 5,888 × 8
#>    data_set_id data_set_name       reported_measure_sum…¹ reported_measure_sum…²
#>    <chr>       <chr>               <chr>                  <chr>                 
#>  1 1           CANCER 2011-12 - M… MYH0002                Median waiting time f…
#>  2 2           CANCER 2011-12 - M… MYH0002                Median waiting time f…
#>  3 3           CANCER 2011-12 - M… MYH0002                Median waiting time f…
#>  4 4           CANCER 2011-12 - N… MYH0001                Number of surgeries f…
#>  5 5           CANCER 2011-12 - N… MYH0001                Number of surgeries f…
#>  6 6           CANCER 2011-12 - N… MYH0001                Number of surgeries f…
#>  7 7           CANCER 2011-12 - P… MYH0003                Percentage of people …
#>  8 8           CANCER 2011-12 - P… MYH0003                Percentage of people …
#>  9 9           CANCER 2011-12 - P… MYH0003                Percentage of people …
#> 10 10          CANCER 2011-12 - P… MYH0004                Percentage of people …
#> # ℹ 5,878 more rows
#> # ℹ abbreviated names: ¹​reported_measure_summary_measure_summary_measure_code,
#> #   ²​reported_measure_summary_measure_summary_measure_name
#> # ℹ 4 more variables: reported_measure_summary_reported_measure_code <chr>,
#> #   reported_measure_summary_reported_measure_name <chr>,
#> #   reporting_end_date <chr>, reporting_start_date <chr>
…
