insert title — read_flat_data_extract • readaihw
…
measure_code
test

return_caveats
test

    Value

    data

    Examples

read_flat_data_extract(measure_category_code = "MYH-CANCER")
#> # A tibble: 1,268 × 23
#>    decimal_places units_are_prefix mapped_state measure_category_code
#>    <chr>          <chr>            <chr>        <chr>                
#>  1 0              FALSE            NSW          MYH-CANCER           
#>  2 0              FALSE            NSW          MYH-CANCER           
#>  3 0              FALSE            NSW          MYH-CANCER           
#>  4 0              FALSE            NSW          MYH-CANCER           
#>  5 0              FALSE            NSW          MYH-CANCER           
#>  6 0              FALSE            NSW          MYH-CANCER           
#>  7 0              FALSE            NSW          MYH-CANCER           
#>  8 0              FALSE            NSW          MYH-CANCER           
#>  9 0              FALSE            NSW          MYH-CANCER           
#> 10 0              FALSE            NSW          MYH-CANCER           
#> # ℹ 1,258 more rows
#> # ℹ 19 more variables: measure_code <chr>, measure_meta_tag_codes <chr>,
#> #   measure_meta_tags <chr>, measure_meta_tags_with_type <chr>,
#> #   measure_name <chr>, reported_measure_category_code <chr>,
#> #   reported_measure_category_name <chr>,
#> #   reported_measure_category_type_code <chr>,
#> #   reported_measure_category_type_name <chr>, reported_measure_code <chr>, …
…
