finding-datasets • readaihw
…
Example 2 - getting data by reporting unit

# choose reporting unit
get_reporting_units()
#> # A tibble: 1,425 × 12
#>    closed private latitude   longitude  reporting_unit_code reporting_unit_name 
#>    <chr>  <chr>   <chr>      <chr>      <chr>               <chr>               
#>  1 FALSE  FALSE   -31.960937 115.788431 H0012               State Forensic Ment…
#>  2 FALSE  FALSE   -33.96907  151.243206 H0013               Justice Health Serv…
#>  3 FALSE  FALSE   -33.801554 150.991759 H0014               The Children's Hosp…
#>  4 FALSE  FALSE   -33.917179 151.238334 H0015               Sydney Children's H…
#>  5 FALSE  FALSE   -33.880525 151.219237 H0016               Sacred Heart Health…
#>  6 FALSE  FALSE   -33.879692 151.221125 H0017               St Vincent's Hospit…
#>  7 FALSE  FALSE   -33.848659 151.028339 H0018               St Joseph's Hospital
#>  8 FALSE  FALSE   -33.859469 151.181469 H0019               Balmain Hospital    
#>  9 FALSE  FALSE   -33.919592 151.098275 H0020               Canterbury Hospital 
#> 10 FALSE  FALSE   -33.889251 151.182926 H0021               Royal Prince Alfred…
#> # ℹ 1,415 more rows
#> # ℹ 6 more variables: reporting_unit_type_reporting_unit_type_code <chr>,
#> #   reporting_unit_type_reporting_unit_type_name <chr>,
#> #   alternative_names1 <chr>, alternative_names2 <chr>,
#> #   alternative_names <chr>, alternative_names3 <chr>
…
# get data
read_dataset_ids("41")
#> # A tibble: 194 × 11
#>    data_id data_name                   start_date end_date reported_measure_code
#>    <chr>   <chr>                       <chr>      <chr>    <chr>                
#>  1 41      ED-TIME 2012-13 - Number o… 2012-07-01 2013-06… MYH-RM0025           
#>  2 41      ED-TIME 2012-13 - Number o… 2012-07-01 2013-06… MYH-RM0025           
#>  3 41      ED-TIME 2012-13 - Number o… 2012-07-01 2013-06… MYH-RM0025           
#>  4 41      ED-TIME 2012-13 - Number o… 2012-07-01 2013-06… MYH-RM0025           
#>  5 41      ED-TIME 2012-13 - Number o… 2012-07-01 2013-06… MYH-RM0025           
#>  6 41      ED-TIME 2012-13 - Number o… 2012-07-01 2013-06… MYH-RM0025           
#>  7 41      ED-TIME 2012-13 - Number o… 2012-07-01 2013-06… MYH-RM0025           
#>  8 41      ED-TIME 2012-13 - Number o… 2012-07-01 2013-06… MYH-RM0025           
#>  9 41      ED-TIME 2012-13 - Number o… 2012-07-01 2013-06… MYH-RM0025           
#> 10 41      ED-TIME 2012-13 - Number o… 2012-07-01 2013-06… MYH-RM0025           
#> # ℹ 184 more rows
#> # ℹ 6 more variables: reported_measure_name <chr>, unit_code <chr>,
#> #   unit_name <chr>, unit_type_code <chr>, unit_type_name <chr>,
#> #   number_of_patients_presenting_to_the_emergency_department <chr>
…
